{
	"schemaVersion": 1,
	"id": "shinypots",
	"version": "${version}",
	"name": "Shiny Pots",
	"description": "Makes the glint on pots take up a full slot.",
	"contact": {
		"homepage": "https://codeberg.org/fineless71/ShinyPots/src/branch/main/README.md",
		"issues": "https://codeberg.org/fineless71/ShinyPots/issues",
		"sources": "https://codeberg.org/fineless71/ShinyPots"
	},
	"license": "CC0-1.0",
	"icon": "assets/shinypots/icon.png",
	"environment": "client",
	"entrypoints": {
		"main": ["nodomain.shinypots.Main"],
		"mopmenu": ["nodomain.shinypots.config.ConfigScreen"]
	},
	"mixins": ["shinypots.mixins.json"],
	"depends": {
		"fabricloader": ">=0.14.19",
		"minecraft": "1.7.10"
	}
}
